…
    ## Warning in mask$eval_all_mutate(quo): 强制改变过程中产生了NA

``` r
homicide_clean
```

    ## # A tibble: 39,362 × 8
    ## # Groups:   city_state, disposition [135]
    ##    victim_race victim_age victim_sex city        state disposi…¹ city_…² resol…³
    ##    <chr>            <dbl> <chr>      <chr>       <chr> <chr>     <fct>     <dbl>
    ##  1 White               15 Female     Albuquerque NM    Closed w… Albuqu…       0
    ##  2 White               72 Female     Albuquerque NM    Closed w… Albuqu…       0
    ##  3 White               91 Female     Albuquerque NM    Open/No … Albuqu…       0
    ##  4 White               56 Male       Albuquerque NM    Open/No … Albuqu…       0
    ##  5 White               43 Female     Albuquerque NM    Closed b… Albuqu…       1
    ##  6 White               52 Male       Albuquerque NM    Closed b… Albuqu…       1
    ##  7 White               22 Female     Albuquerque NM    Closed b… Albuqu…       1
    ##  8 Black               15 Male       Albuquerque NM    Closed b… Albuqu…       1
    ##  9 Black               25 Male       Albuquerque NM    Closed b… Albuqu…       1
    ## 10 White               20 Male       Albuquerque NM    Closed b… Albuqu…       1
    ## # … with 39,352 more rows, and abbreviated variable names ¹​disposition,
    ## #   ²​city_state, ³​resolved
…
